{
  "tracks" : [
    {
        "id" : 1,
        "song_name": "Airplane Seabird",
        "label": "Sony_music",
        "label_address": "0x1368931b731a2893c675e468dd7606ada56337df",
        "price": 2500000000000000000,
        "publishers": [
          "Arthouse Entertainment"
        ],

        "publishers_address" : [
          "0x92e52a1a235d9a103d970901066ce910aacefd37"
        ],
        "revenue_splits" : [
          60,
          40
        ]
    }
  ]
}
